[gd_resource type="AudioBusLayout" load_steps=8 format=2]

[sub_resource type="AudioEffectReverb" id=1]
resource_name = "Reverb"
room_size = 0.28
damping = 0.75
spread = 0.62

[sub_resource type="AudioEffectCompressor" id=2]
resource_name = "Compressor"
threshold = -12.5
ratio = 15.9
gain = 6.2

[sub_resource type="AudioEffectDistortion" id=3]
resource_name = "Distortion"
mode = 2
pre_gain = -7.01

[sub_resource type="AudioEffectDistortion" id=4]
resource_name = "Distortion"

[sub_resource type="AudioEffectDistortion" id=5]
resource_name = "Distortion"

[sub_resource type="AudioEffectPanner" id=6]
resource_name = "Panner"
pan = 1.0

[sub_resource type="AudioEffectPanner" id=7]
resource_name = "Panner"
pan = -1.0

[resource]
bus/1/name = "muziko"
bus/1/solo = false
bus/1/mute = false
bus/1/bypass_fx = false
bus/1/volume_db = 0.0
bus/1/send = "Master"
bus/2/name = "efektoj"
bus/2/solo = false
bus/2/mute = false
bus/2/bypass_fx = false
bus/2/volume_db = 0.0
bus/2/send = "Master"
bus/3/name = "klako"
bus/3/solo = false
bus/3/mute = false
bus/3/bypass_fx = false
bus/3/volume_db = 0.0
bus/3/send = "efektoj"
bus/3/effect/0/effect = SubResource( 1 )
bus/3/effect/0/enabled = false
bus/3/effect/1/effect = SubResource( 2 )
bus/3/effect/1/enabled = true
bus/3/effect/2/effect = SubResource( 3 )
bus/3/effect/2/enabled = true
bus/4/name = "vocxo"
bus/4/solo = false
bus/4/mute = false
bus/4/bypass_fx = false
bus/4/volume_db = 0.0
bus/4/send = "efektoj"
bus/4/effect/0/effect = SubResource( 4 )
bus/4/effect/0/enabled = false
bus/5/name = "poentanonco"
bus/5/solo = false
bus/5/mute = false
bus/5/bypass_fx = false
bus/5/volume_db = -10.3
bus/5/send = "efektoj"
bus/5/effect/0/effect = SubResource( 5 )
bus/5/effect/0/enabled = true
bus/6/name = "CxefaMenuo"
bus/6/solo = false
bus/6/mute = false
bus/6/bypass_fx = false
bus/6/volume_db = 0.0
bus/6/send = "muziko"
bus/7/name = "EfektoL2"
bus/7/solo = false
bus/7/mute = false
bus/7/bypass_fx = false
bus/7/volume_db = 0.0
bus/7/send = "efektoj"
bus/7/effect/0/effect = SubResource( 6 )
bus/7/effect/0/enabled = true
bus/8/name = "EfektoL1"
bus/8/solo = false
bus/8/mute = false
bus/8/bypass_fx = false
bus/8/volume_db = 0.0
bus/8/send = "Master"
bus/8/effect/0/effect = SubResource( 7 )
bus/8/effect/0/enabled = true
