[gd_scene load_steps=6 format=2]

[ext_resource path="res://UI/tiparoj/Comfortaa-Light.ttf" type="DynamicFontData" id=1]

[sub_resource type="StyleBoxFlat" id=25]
bg_color = Color( 0.670588, 0.913725, 0, 1 )

[sub_resource type="StyleBoxFlat" id=26]
bg_color = Color( 0.372549, 0.505882, 0, 1 )

[sub_resource type="StyleBoxFlat" id=27]
bg_color = Color( 0, 0.913725, 0.384314, 0.537255 )

[sub_resource type="DynamicFont" id=28]
size = 24
use_filter = true
font_data = ExtResource( 1 )

[node name="RetrokuploButono" type="Button"]
anchor_top = 1.0
anchor_bottom = 1.0
margin_top = -50.0
margin_right = 250.0
rect_min_size = Vector2( 300, 50 )
custom_styles/hover = SubResource( 25 )
custom_styles/pressed = SubResource( 26 )
custom_styles/normal = SubResource( 27 )
custom_fonts/font = SubResource( 28 )
custom_colors/font_color = Color( 1, 1, 1, 1 )
custom_colors/font_color_hover = Color( 0, 0, 0, 1 )
custom_colors/font_color_pressed = Color( 0, 0, 0, 1 )
text = "RETROKUPLO"

