[gd_scene load_steps=2 format=2]

[ext_resource path="res://assets/lud_tiparoj/vorto.tres" type="DynamicFont" id=1]

[node name="Gxusta" type="Label"]
modulate = Color( 1, 0.164706, 0, 1 )
margin_right = 257.0
margin_bottom = 35.0
custom_fonts/font = ExtResource( 1 )
custom_colors/font_color = Color( 1, 1, 1, 1 )
text = "GXUSTA VORTO"
