[gd_scene load_steps=8 format=2]

[ext_resource path="res://skriptoj/vorto.gd" type="Script" id=1]
[ext_resource path="res://assets/vorto/vidpunkto_tiparo.tres" type="DynamicFont" id=2]

[sub_resource type="Gradient" id=1]
offsets = PoolRealArray( 0, 0.5, 1 )
colors = PoolColorArray( 1, 1, 1, 0, 1, 1, 1, 1, 1, 1, 1, 0 )

[sub_resource type="GradientTexture" id=2]
gradient = SubResource( 1 )

[sub_resource type="RectangleShape2D" id=3]
extents = Vector2( 134.495, 19.6052 )

[sub_resource type="Gradient" id=4]
colors = PoolColorArray( 1, 1, 1, 1, 1, 1, 1, 0 )

[sub_resource type="GradientTexture" id=5]
gradient = SubResource( 4 )

[node name="vorto" type="KinematicBody2D" groups=[
"vortoj",
]]
position = Vector2( 0, 3.85814 )
collision_layer = 1025
collision_mask = 1025
script = ExtResource( 1 )
rugxa = Color( 0.960938, 0.315308, 0.315308, 0 )
orangxa = Color( 0.945312, 0.401977, 0.136627, 0 )
blua = Color( 0.136719, 0.453705, 1, 0 )
flava = Color( 0.917969, 0.839081, 0, 0 )

[node name="Sprite2" type="Sprite" parent="."]
modulate = Color( 1, 1, 1, 0.160784 )
position = Vector2( -295.507, -4.41061 )
texture = SubResource( 2 )
region_enabled = true
region_rect = Rect2( 694.03, 140, 50, 4.26 )

[node name="Sprite3" type="Sprite" parent="."]
modulate = Color( 1, 1, 1, 0.160784 )
position = Vector2( 298.448, -4.41061 )
texture = SubResource( 2 )
region_enabled = true
region_rect = Rect2( 694.03, 140, 50, 4.26 )

[node name="CollisionShape" type="CollisionShape2D" parent="."]
position = Vector2( 0, -2.3065 )
shape = SubResource( 3 )

[node name="teksto" type="Label" parent="."]
anchor_left = 0.5
anchor_top = 0.5
anchor_right = 0.5
anchor_bottom = 0.5
margin_left = -354.0
margin_top = -36.0
margin_right = 353.0
margin_bottom = 39.0
rect_min_size = Vector2( 707, 75 )
custom_fonts/font = ExtResource( 2 )
text = "VORTO VORTO VORTO"
align = 1
valign = 1
uppercase = true

[node name="l" type="Sprite" parent="."]
visible = false
position = Vector2( -253.983, -3.81863 )
scale = Vector2( 4.40726, 1.78828 )
texture = SubResource( 5 )
region_enabled = true
region_rect = Rect2( 10, 10, 10, 10 )

[node name="r" type="Sprite" parent="."]
visible = false
position = Vector2( 253.983, -3.81863 )
scale = Vector2( 4.40726, 1.78828 )
texture = SubResource( 5 )
region_enabled = true
region_rect = Rect2( 10, 10, 10, 10 )

[node name="tvino" type="Tween" parent="."]

[node name="l_tvino" type="Tween" parent="."]

[node name="r_tvino" type="Tween" parent="."]
